Arts & Culture,Science
Biollogy,Science
Chemistry,Science
Evolution,Science
Math,Science
Physics,Science
Policy & Ethics,Science
Space,Science
Behavior & Society,Mind & Body
Cognition,Mind & Body
Mental Health,Mind & Body
Medicine,Mind & Body
Biotech,Mind & Body
The Body, Mind & Body
Wellness, Mind & Body
Public Health,Mind & Body
Neurological Health,Mind & Body
Neuroscience,Mind & Body
Automotive,Science
Computing,Science
Electronics,Science
Energy,Science
Engineering,Science
Medical & Biotech,Science
Climate,Nature
Conservation,Nature
Environment,Nature
Natural Disasters,Nature
Weather,Nature
